{
  "type": "event",
  "subtype": "event_active",
  "results": [
    {
    "id": 1108,
    "name": "Festa da Senha - Libere seus sentidos",
    "start_date": "2018-04-13T06:00:00",
    "address": null,
    "cover_photo": "https://s3-sa-east-1.amazonaws.com/partyouuploads/thumb/250f206273b14a850822f41703acb8b1aeead56637490a48d8c2ebe6a4249e4e.jpeg"
  },
  {
    "id": 1188,
    "name": "Encomendas IUSP 2018",
    "start_date": "",
    "address": null,
    "cover_photo": null
  },
  {
    "id": 1229,
    "name": "Encomendas Interusp 2018 - ATLETAS",
    "start_date": "",
    "address": null,
    "cover_photo": null
  },
  {
    "id": 1290,
    "name": "InterUSP Delegação Poli",
    "start_date": "",
    "address": "Bauru, SP, Brasil",
    "cover_photo": "https://s3-sa-east-1.amazonaws.com/partyouuploads/thumb/9e1c17ea5c80f575a11b4bc4c343f01cc50bd949e6c0d744a971974fedd21d29.jpeg"
  },
  {
    "id": 1460,
    "name": "Curso de Excel Avançado - AAAP",
    "start_date": "2018-07-16T12:00:00",
    "address": null,
    "cover_photo": "https://s3-sa-east-1.amazonaws.com/partyouuploads/thumb/0e88fea569bb0867b2a1644a1a14c025843f92c41198ed00e23f0676eee23f27.jpeg"
  },
  {
    "id": 1563,
    "name": "Encomendas TUSCA 2018 - ATLETAS",
    "start_date": "",
    "address": null,
    "cover_photo": "https://s3-sa-east-1.amazonaws.com/partyouuploads/thumb/35394dd35bc4a0fa95c19f635ecc23e22077191cdf0933f472735658d4f7b324.jpeg"
  },
  {
    "id": 1634,
    "name": "Engenharíadas 2018 - A Taça Fica!",
    "start_date": "2018-09-07T06:00:00",
    "address": null,
    "cover_photo": null
  },
  {
    "id": 1705,
    "name": "POLI na Tusca 2018 - Epidemia Politécnica",
    "start_date": "",
    "address": null,
    "cover_photo": null
  },
  {
    "id": 1802,
    "name": "Encomendas - LINHA VERÃO 2018",
    "start_date": "",
    "address": null,
    "cover_photo": "https://s3-sa-east-1.amazonaws.com/partyouuploads/thumb/071e1066c85fc6d593670ae8801cc6550574ac0b029459931b166ea3acd75705.png"
  },
  {
    "id": 1875,
    "name": "Rato do Ano 2018",
    "start_date": "",
    "address": null,
    "cover_photo": null
  }
  ],
  "results_spec": {
    "page": 1,
    "page_size": 10,
    "total_pages": 2,
    "next": 2,
    "previous": null,
    "total_results": 20,
    "status": 200
  }
}