{
  "type": "ticket",
  "subtype": "select_item",
  "results": [
    {
      "id": 1108,
      "name": "Festa da Senha - Libere seus sentidos",
      "start_date": "2018-04-13T06:00:00",
      "address": "Expo Barra Funda: Rua Tagipuru, 1000, 01156-000, Barra Funda, São Paulo, SP",
      "thumb": "https://s3-sa-east-1.amazonaws.com/partyouuploads/thumb/250f206273b14a850822f41703acb8b1aeead56637490a48d8c2ebe6a4249e4e.jpeg"
    }
  ],
  "results_spec": {
    "page": 1,
    "page_size": 10,
    "total_pages": 2,
    "next": 2,
    "previous": null,
    "total_results": 20,
    "status": 200
  }
}